<?xml version="1.0" encoding="UTF-8" standalone="no"?>
<svg
   viewBox="0 0 36 36"
   version="1.1"
   id="svg6"
   sodipodi:docname="copyright.svg"
   inkscape:version="1.1.2 (0a00cf5339, 2022-02-04, custom)"
   xmlns:inkscape="http://www.inkscape.org/namespaces/inkscape"
   xmlns:sodipodi="http://sodipodi.sourceforge.net/DTD/sodipodi-0.dtd"
   xmlns="http://www.w3.org/2000/svg"
   xmlns:svg="http://www.w3.org/2000/svg">
  <defs
     id="defs10" />
  <sodipodi:namedview
     id="namedview8"
     pagecolor="#ffffff"
     bordercolor="#666666"
     borderopacity="1.0"
     inkscape:pageshadow="2"
     inkscape:pageopacity="0.0"
     inkscape:pagecheckerboard="0"
     showgrid="false"
     inkscape:zoom="55.437575"
     inkscape:cx="10.97631"
     inkscape:cy="15.900768"
     inkscape:window-width="3749"
     inkscape:window-height="2111"
     inkscape:window-x="91"
     inkscape:window-y="0"
     inkscape:window-maximized="1"
     inkscape:current-layer="svg6" />
  <path
     d="M18 0C8.059 0 0 8.06 0 18c0 9.941 8.059 18 18 18s18-8.059 18-18c0-9.94-8.059-18-18-18zm0 34C9.164 34 2 26.837 2 18 2 9.164 9.164 2 18 2c8.837 0 16 7.164 16 16 0 8.837-7.163 16-16 16z"
     id="path6195" />
  <path
     d="m 18.057906,7.2202668 c 3.360332,0.00987 7.460983,2.1642263 7.456537,3.5948082 -0.0035,1.115995 -0.431762,1.135411 -1.578762,1.135411 -1.272,0 -3.377538,-2.4618377 -5.982538,-2.4618377 -3.845,0 -7.147677,4.7843517 -7.147677,8.5663517 0,3.689 3.893952,8.347642 7.707952,8.347642 2.605,0 3.735762,-1.664167 5.006762,-1.664167 1.396,0 2.00282,0.598232 2.00282,1.310232 0,2.977 -4.506,3.322293 -6.8,3.322293 -6.294,0 -10.666,-4.992 -10.666,-11.41 0,-6.448 3.693999,-10.7592583 10.000906,-10.7407332 z"
     id="path4"
     sodipodi:nodetypes="sssssssssss" />
</svg>
