<?xml version="1.0" standalone="no"?>
<!DOCTYPE svg PUBLIC "-//W3C//DTD SVG 20010904//EN"
 "http://www.w3.org/TR/2001/REC-SVG-20010904/DTD/svg10.dtd">
<svg version="1.0" xmlns="http://www.w3.org/2000/svg"
 width="2048.000000pt" height="2048.000000pt" viewBox="0 0 2048.000000 2048.000000"
 preserveAspectRatio="xMidYMid meet">

<g transform="translate(0.000000,2048.000000) scale(0.100000,-0.100000)"
fill="#000000" stroke="none">
<path d="M9665 20003 c-22 -1 -105 -8 -185 -13 -780 -58 -1708 -285 -2385
-585 -869 -384 -1431 -890 -1619 -1456 -70 -209 -68 -188 -76 -909 -4 -360 -8
-798 -9 -972 l-1 -317 -857 -4 c-748 -3 -871 -6 -958 -20 -390 -66 -687 -204
-968 -447 -423 -366 -736 -945 -1085 -2010 -168 -514 -263 -988 -302 -1520
-13 -174 -13 -703 0 -890 43 -614 172 -1348 351 -2000 338 -1223 956 -1926
1852 -2104 217 -44 284 -46 1480 -46 l1142 0 5 1102 c6 1092 6 1104 28 1197
69 293 194 555 393 821 378 508 957 895 1529 1023 95 21 102 21 2190 27 l2095
5 110 22 c291 59 503 140 750 290 415 251 844 729 1079 1200 111 225 180 430
206 618 8 57 10 707 8 2280 -4 2411 0 2254 -62 2510 -108 448 -381 854 -795
1184 -367 292 -827 520 -1395 690 -576 174 -1171 283 -1741 321 -136 9 -682
11 -780 3z m625 -693 c537 -26 1041 -112 1620 -277 1038 -296 1662 -793 1796
-1433 25 -120 33 -384 34 -1036 l0 -611 -142 -139 c-181 -176 -539 -484 -563
-484 -4 0 -46 -28 -94 -63 -488 -358 -1050 -633 -1636 -800 -104 -30 -202 -57
-217 -61 -21 -5 -28 -12 -28 -31 l0 -25 -104 0 c-74 0 -149 -9 -258 -29 -599
-115 -1088 -154 -2163 -171 -673 -11 -921 -28 -1355 -91 -1596 -231 -3069
-902 -4365 -1989 -223 -187 -200 -153 -216 -310 -23 -222 -18 -766 9 -1020 41
-380 109 -760 216 -1210 133 -558 272 -901 468 -1158 85 -111 340 -242 528
-272 36 -5 235 -10 446 -10 l381 0 6 363 c7 370 20 542 57 747 266 1474 1481
2711 2960 3014 312 64 186 60 2098 63 l1742 4 0 -340 0 -340 -1692 -4 -1693
-3 -140 -22 c-573 -92 -1067 -319 -1525 -703 -558 -467 -968 -1155 -1080
-1813 -31 -181 -40 -417 -40 -1059 l0 -588 -847 4 c-826 3 -850 4 -940 25
-268 62 -465 166 -646 341 -366 353 -587 854 -796 1806 -198 903 -256 1692
-175 2375 56 480 167 904 400 1536 404 1100 793 1511 1469 1554 94 6 1340 7
3350 2 1760 -5 3201 -8 3202 -7 2 1 6 160 9 353 l7 352 -1270 0 c-698 0 -1662
3 -2142 7 l-872 6 3 911 3 911 32 92 c68 194 156 326 338 508 198 199 389 329
728 496 701 345 1675 585 2549 628 231 12 313 12 548 1z"/>
<path d="M9805 18618 c-362 -13 -731 -66 -1150 -164 -187 -44 -545 -144 -545
-153 0 -3 18 -16 40 -28 110 -64 220 -185 286 -315 148 -294 90 -657 -142
-891 l-57 -57 72 0 71 0 0 -35 0 -35 525 0 525 0 0 -50 0 -50 110 0 110 0 0
-50 0 -50 930 0 930 0 0 -85 0 -85 520 0 520 0 0 -55 0 -55 240 0 240 0 0 443
c0 452 -7 583 -35 666 -19 57 -151 224 -233 294 -193 165 -526 333 -896 453
-160 52 -542 152 -721 188 -472 98 -871 132 -1340 114z"/>
<path d="M6913 17607 c-34 -37 -76 -95 -95 -134 -32 -65 -33 -72 -36 -210 l-3
-143 186 0 186 0 -32 46 c-78 114 -126 257 -137 412 l-7 95 -62 -66z"/>
<path d="M6130 3648 c-56 -98 -73 -156 -78 -264 -5 -114 9 -176 60 -278 194
-384 854 -732 1798 -949 237 -55 249 -53 80 11 -346 132 -631 274 -870 433
-421 281 -702 585 -895 972 l-64 127 -31 -52z"/>
</g>
</svg>
